sim/cpu_top_wave.vcd
$date
	Sun Jun 14 23:28:10 2026
$end
$version
	Icarus Verilog
$end
$timescale
	1ps
$end
$scope module tb_cpu_top $end
$var reg 1 ! clk $end
$var reg 1 " rst_n $end
$scope module dut $end
$var wire 1 ! clk $end
$var wire 32 # ex_mem_forward_data [31:0] $end
$var wire 1 " rst_n $end
$var wire 32 $ wb_forward_data [31:0] $end
$var wire 1 % wb_write_enable $end
$var wire 32 & wb_wdata [31:0] $end
$var wire 5 ' wb_rd [4:0] $end
$var wire 1 ( pc_write $end
$var wire 2 ) mem_wb_write_back_source [1:0] $end
$var wire 1 * mem_wb_reg_write $end
$var wire 5 + mem_wb_rd [4:0] $end
$var wire 32 , mem_wb_pc4 [31:0] $end
$var wire 32 - mem_wb_mem_data [31:0] $end
$var wire 32 . mem_wb_alu_result [31:0] $end
$var wire 1 / if_id_write $end
$var wire 5 0 if_id_rs2 [4:0] $end
$var wire 5 1 if_id_rs1 [4:0] $end
$var wire 32 2 if_id_pc4 [31:0] $end
$var wire 32 3 if_id_pc [31:0] $end
$var wire 32 4 if_id_instr [31:0] $end
$var wire 1 5 if_id_flush $end
$var wire 2 6 id_ex_write_back_source [1:0] $end
$var wire 5 7 id_ex_rs2 [4:0] $end
$var wire 5 8 id_ex_rs1 [4:0] $end
$var wire 1 9 id_ex_reg_write $end
$var wire 32 : id_ex_rdata2 [31:0] $end
$var wire 32 ; id_ex_rdata1 [31:0] $end
$var wire 5 < id_ex_rd [4:0] $end
$var wire 32 = id_ex_pc4 [31:0] $end
$var wire 32 > id_ex_pc [31:0] $end
$var wire 7 ? id_ex_op [6:0] $end
$var wire 1 @ id_ex_mem_write $end
$var wire 1 A id_ex_mem_read $end
$var wire 1 B id_ex_jump $end
$var wire 1 C id_ex_jalr $end
$var wire 32 D id_ex_imm [31:0] $end
$var wire 1 E id_ex_flush $end
$var wire 7 F id_ex_f7 [6:0] $end
$var wire 3 G id_ex_f3 [2:0] $end
$var wire 1 H id_ex_branch $end
$var wire 1 I id_ex_alu_source $end
$var wire 4 J id_ex_alu_control [3:0] $end
$var wire 2 K forward_b [1:0] $end
$var wire 2 L forward_a [1:0] $end
$var wire 32 M ex_pc_target [31:0] $end
$var wire 1 N ex_pc_src $end
$var wire 2 O ex_mem_write_back_source [1:0] $end
$var wire 1 P ex_mem_reg_write $end
$var wire 32 Q ex_mem_rdata2 [31:0] $end
$var wire 5 R ex_mem_rd [4:0] $end
$var wire 32 S ex_mem_pc4 [31:0] $end
$var wire 1 T ex_mem_mem_write $end
$var wire 32 U ex_mem_alu_result [31:0] $end
$var wire 1 V control_mux_sel $end
$scope module BFU $end
$var wire 1 E id_ex_flush $end
$var wire 1 5 if_id_flush $end
$var wire 1 N ex_pc_src $end
$upscope $end
$scope module EX $end
$var wire 1 W branch_taken $end
$var wire 1 ! clk $end
$var wire 32 X ex_mem_forward_data [31:0] $end
$var wire 1 N ex_pc_src $end
$var wire 1 " rst_n $end
$var wire 32 Y wb_forward_data [31:0] $end
$var wire 1 Z zero $end
$var wire 1 [ less_than_u $end
$var wire 1 \ less_than $end
$var wire 1 ] is_lui $end
$var wire 1 ^ is_auipc $end
$var wire 2 _ id_ex_write_back_source [1:0] $end
$var wire 5 ` id_ex_rs2 [4:0] $end
$var wire 5 a id_ex_rs1 [4:0] $end
$var wire 1 9 id_ex_reg_write $end
$var wire 32 b id_ex_rdata2 [31:0] $end
$var wire 32 c id_ex_rdata1 [31:0] $end
$var wire 5 d id_ex_rd [4:0] $end
$var wire 32 e id_ex_pc4 [31:0] $end
$var wire 32 f id_ex_pc [31:0] $end
$var wire 7 g id_ex_op [6:0] $end
$var wire 1 @ id_ex_mem_write $end
$var wire 1 B id_ex_jump $end
$var wire 1 C id_ex_jalr $end
$var wire 32 h id_ex_imm [31:0] $end
$var wire 7 i id_ex_f7 [6:0] $end
$var wire 3 j id_ex_f3 [2:0] $end
$var wire 1 H id_ex_branch $end
$var wire 1 I id_ex_alu_source $end
$var wire 4 k id_ex_alu_control [3:0] $end
$var wire 2 l forward_b [1:0] $end
$var wire 2 m forward_a [1:0] $end
$var wire 32 n ex_pc_target [31:0] $end
$var wire 32 o alu_src2 [31:0] $end
$var wire 32 p alu_src1 [31:0] $end
$var wire 32 q alu_result [31:0] $end
$var reg 32 r ex_mem_alu_result [31:0] $end
$var reg 1 T ex_mem_mem_write $end
$var reg 32 s ex_mem_pc4 [31:0] $end
$var reg 5 t ex_mem_rd [4:0] $end
$var reg 32 u ex_mem_rdata2 [31:0] $end
$var reg 1 P ex_mem_reg_write $end
$var reg 2 v ex_mem_write_back_source [1:0] $end
$var reg 32 w forwarded_rs1 [31:0] $end
$var reg 32 x forwarded_rs2 [31:0] $end
$scope module ALU $end
$var wire 32 y src1 [31:0] $end
$var wire 32 z src2 [31:0] $end
$var wire 1 Z zero $end
$var wire 1 [ less_than_u $end
$var wire 1 \ less_than $end
$var wire 4 { alu_control [3:0] $end
$var reg 32 | alu_result [31:0] $end
$upscope $end
$upscope $end
$scope module FU $end
$var wire 5 } ex_mem_rd [4:0] $end
$var wire 1 P ex_mem_reg_write $end
$var wire 1 * mem_wb_reg_write $end
$var wire 5 ~ mem_wb_rd [4:0] $end
$var wire 5 !" id_ex_rs2 [4:0] $end
$var wire 5 "" id_ex_rs1 [4:0] $end
$var reg 2 #" forward_a [1:0] $end
$var reg 2 $" forward_b [1:0] $end
$upscope $end
$scope module ID $end
$var wire 1 ! clk $end
$var wire 1 E id_ex_flush $end
$var wire 1 " rst_n $end
$var wire 2 %" write_back_source [1:0] $end
$var wire 1 % wb_write_enable $end
$var wire 32 &" wb_wdata [31:0] $end
$var wire 5 '" wb_rd [4:0] $end
$var wire 1 (" second_add_source $end
$var wire 5 )" rs2 [4:0] $end
$var wire 5 *" rs1 [4:0] $end
$var wire 32 +" rf_rdata2 [31:0] $end
$var wire 32 ," rf_rdata1 [31:0] $end
$var wire 1 -" reg_write $end
$var wire 5 ." rd [4:0] $end
$var wire 7 /" op [6:0] $end
$var wire 1 0" mem_write $end
$var wire 1 1" jump $end
$var wire 1 2" jalr $end
$var wire 3 3" imm_source [2:0] $end
$var wire 32 4" imm [31:0] $end
$var wire 32 5" if_id_pc4 [31:0] $end
$var wire 32 6" if_id_pc [31:0] $end
$var wire 32 7" if_id_instr [31:0] $end
$var wire 7 8" func7 [6:0] $end
$var wire 3 9" func3 [2:0] $end
$var wire 1 V control_mux_sel $end
$var wire 1 :" branch $end
$var wire 1 ;" alu_source $end
$var wire 4 <" alu_control [3:0] $end
$var reg 4 =" id_ex_alu_control [3:0] $end
$var reg 1 I id_ex_alu_source $end
$var reg 1 H id_ex_branch $end
$var reg 3 >" id_ex_f3 [2:0] $end
$var reg 7 ?" id_ex_f7 [6:0] $end
$var reg 32 @" id_ex_imm [31:0] $end
$var reg 1 C id_ex_jalr $end
$var reg 1 B id_ex_jump $end
$var reg 1 @ id_ex_mem_write $end
$var reg 7 A" id_ex_op [6:0] $end
$var reg 32 B" id_ex_pc [31:0] $end
$var reg 32 C" id_ex_pc4 [31:0] $end
$var reg 5 D" id_ex_rd [4:0] $end
$var reg 32 E" id_ex_rdata1 [31:0] $end
$var reg 32 F" id_ex_rdata2 [31:0] $end
$var reg 1 9 id_ex_reg_write $end
$var reg 5 G" id_ex_rs1 [4:0] $end
$var reg 5 H" id_ex_rs2 [4:0] $end
$var reg 2 I" id_ex_write_back_source [1:0] $end
$scope module CTRL $end
$var wire 3 J" func3 [2:0] $end
$var wire 7 K" func7 [6:0] $end
$var wire 7 L" op [6:0] $end
$var reg 4 M" alu_control [3:0] $end
$var reg 2 N" alu_op [1:0] $end
$var reg 1 ;" alu_source $end
$var reg 1 :" branch $end
$var reg 3 O" imm_source [2:0] $end
$var reg 1 2" jalr $end
$var reg 1 1" jump $end
$var reg 1 0" mem_write $end
$var reg 1 -" reg_write $end
$var reg 1 (" second_add_source $end
$var reg 2 P" write_back_source [1:0] $end
$upscope $end
$scope module RF $end
$var wire 5 Q" address1 [4:0] $end
$var wire 5 R" address2 [4:0] $end
$var wire 1 ! clk $end
$var wire 1 % write_enable $end
$var wire 32 S" write_data [31:0] $end
$var wire 5 T" address3 [4:0] $end
$var reg 32 U" read_data1 [31:0] $end
$var reg 32 V" read_data2 [31:0] $end
$upscope $end
$scope module SE $end
$var wire 3 W" imm_source [2:0] $end
$var wire 32 X" immediate [31:0] $end
$var wire 32 Y" raw_src [31:0] $end
$var reg 32 Z" gathered_imm [31:0] $end
$upscope $end
$upscope $end
$scope module IF $end
$var wire 1 ! clk $end
$var wire 1 N ex_pc_src $end
$var wire 32 [" ex_pc_target [31:0] $end
$var wire 1 5 if_id_flush $end
$var wire 1 " rst_n $end
$var wire 1 ( pc_write $end
$var wire 32 \" pc_next [31:0] $end
$var wire 32 ]" instr [31:0] $end
$var wire 1 / if_id_write $end
$var reg 32 ^" if_id_instr [31:0] $end
$var reg 32 _" if_id_pc [31:0] $end
$var reg 32 `" if_id_pc4 [31:0] $end
$var reg 32 a" pc [31:0] $end
$scope module IMEM $end
$var wire 32 b" address [31:0] $end
$var wire 1 ! clk $end
$var wire 32 c" read_data [31:0] $end
$var wire 1 " rst_n $end
$var integer 32 d" i [31:0] $end
$upscope $end
$upscope $end
$scope module LSU $end
$var wire 1 A id_ex_mem_read $end
$var wire 5 e" id_ex_rd [4:0] $end
$var wire 5 f" if_id_rs1 [4:0] $end
$var wire 5 g" if_id_rs2 [4:0] $end
$var reg 1 V control_mux_sel $end
$var reg 1 / if_id_write $end
$var reg 1 ( pc_write $end
$upscope $end
$scope module MEM $end
$var wire 1 ! clk $end
$var wire 32 h" ex_mem_alu_result [31:0] $end
$var wire 1 T ex_mem_mem_write $end
$var wire 32 i" ex_mem_pc4 [31:0] $end
$var wire 5 j" ex_mem_rd [4:0] $end
$var wire 32 k" ex_mem_rdata2 [31:0] $end
$var wire 1 P ex_mem_reg_write $end
$var wire 2 l" ex_mem_write_back_source [1:0] $end
$var wire 1 " rst_n $end
$var wire 32 m" dmem_read_data [31:0] $end
$var reg 32 n" mem_wb_alu_result [31:0] $end
$var reg 32 o" mem_wb_mem_data [31:0] $end
$var reg 32 p" mem_wb_pc4 [31:0] $end
$var reg 5 q" mem_wb_rd [4:0] $end
$var reg 1 * mem_wb_reg_write $end
$var reg 2 r" mem_wb_write_back_source [1:0] $end
$scope module DMEM $end
$var wire 32 s" address [31:0] $end
$var wire 1 ! clk $end
$var wire 32 t" read_data [31:0] $end
$var wire 1 " rst_n $end
$var wire 32 u" write_data [31:0] $end
$var wire 1 T write_enable $end
$var integer 32 v" i [31:0] $end
$upscope $end
$upscope $end
$scope module WB $end
$var wire 32 w" mem_wb_alu_result [31:0] $end
$var wire 32 x" mem_wb_mem_data [31:0] $end
$var wire 32 y" mem_wb_pc4 [31:0] $end
$var wire 5 z" mem_wb_rd [4:0] $end
$var wire 1 * mem_wb_reg_write $end
$var wire 2 {" mem_wb_write_back_source [1:0] $end
$var wire 5 |" wb_rd [4:0] $end
$var wire 1 % wb_write_enable $end
$var reg 32 }" wb_wdata [31:0] $end
$upscope $end
$upscope $end
$upscope $end
$enddefinitions $end
$comment Show the parameter values. $end
$dumpall
$end
#0
$dumpvars
bx }"
bx |"
bx {"
bx z"
bx y"
bx x"
bx w"
bx v"
bx u"
bx t"
bx s"
bx r"
bx q"
bx p"
bx o"
bx n"
bx m"
bx l"
bx k"
bx j"
bx i"
bx h"
bx g"
bx f"
bx e"
bx d"
bx c"
bx b"
bx a"
bx `"
bx _"
bx ^"
bx ]"
bx \"
bx ["
bx Z"
bx Y"
bx X"
bx W"
bx V"
bx U"
bx T"
bx S"
bx R"
bx Q"
bx P"
bx O"
bx N"
bx M"
bx L"
bx K"
bx J"
bx I"
bx H"
bx G"
bx F"
bx E"
bx D"
bx C"
bx B"
bx A"
bx @"
bx ?"
bx >"
bx ="
bx <"
x;"
x:"
bx 9"
bx 8"
bx 7"
bx 6"
bx 5"
bx 4"
bx 3"
x2"
x1"
x0"
bx /"
bx ."
x-"
bx ,"
bx +"
bx *"
bx )"
x("
bx '"
bx &"
bx %"
bx $"
bx #"
bx ""
bx !"
bx ~
bx }
bx |
bx {
bx z
bx y
bx x
bx w
bx v
bx u
bx t
bx s
bx r
bx q
bx p
bx o
bx n
bx m
bx l
bx k
bx j
bx i
bx h
bx g
bx f
bx e
bx d
bx c
bx b
bx a
bx `
bx _
x^
x]
x\
x[
xZ
bx Y
bx X
xW
xV
bx U
xT
bx S
bx R
bx Q
xP
bx O
xN
bx M
bx L
bx K
bx J
xI
xH
bx G
bx F
xE
bx D
xC
xB
xA
x@
bx ?
bx >
bx =
bx <
bx ;
bx :
x9
bx 8
bx 7
bx 6
x5
bx 4
bx 3
bx 2
bx 1
bx 0
x/
bx .
bx -
bx ,
bx +
x*
bx )
x(
bx '
bx &
x%
bx $
bx #
0"
0!
$end
#5000
b100 \"
b0 +"
b0 V"
b0 ,"
b0 U"
b0 <"
b0 M"
02"
01"
0:"
0("
b0 %"
b0 P"
0;"
b0 N"
00"
b0 3"
b0 O"
b0 W"
0-"
1Z
b0 q
b0 |
0E
05
0N
b0 M
b0 n
b0 ["
b0 ]"
b0 c"
b0 ."
b0 )"
b0 R"
b0 *"
b0 Q"
b0 8"
b0 K"
b0 9"
b0 J"
b0 /"
b0 L"
b0 0
b0 g"
b0 1
b0 f"
b0 4"
b0 X"
b0 Z"
0\
0[
b0 p
b0 y
0W
0V
1/
1(
b0 o
b0 z
b0 m"
b0 t"
b0 x
b0 w
b0 K
b0 l
b0 $"
b0 L
b0 m
b0 #"
b0 $
b0 Y
b0 &
b0 &"
b0 S"
b0 }"
b0 a"
b0 b"
b0 4
b0 7"
b0 Y"
b0 ^"
b0 2
b0 5"
b0 `"
b0 3
b0 6"
b0 _"
b0 <
b0 d
b0 D"
b0 e"
b0 7
b0 `
b0 !"
b0 H"
b0 8
b0 a
b0 ""
b0 G"
b0 F
b0 i
b0 ?"
b0 G
b0 j
b0 >"
0^
0]
b0 ?
b0 g
b0 A"
0C
0B
0H
09
0@
0A
b0 6
b0 _
b0 I"
0I
b0 J
b0 k
b0 {
b0 ="
b0 D
b0 h
b0 @"
b0 :
b0 b
b0 F"
b0 ;
b0 c
b0 E"
b0 =
b0 e
b0 C"
b0 >
b0 f
b0 B"
b0 S
b0 s
b0 i"
b0 R
b0 t
b0 }
b0 j"
0P
0T
b0 O
b0 v
b0 l"
b0 Q
b0 u
b0 k"
b0 u"
b0 #
b0 X
b0 U
b0 r
b0 h"
b0 s"
b0 ,
b0 p"
b0 y"
b0 '
b0 '"
b0 T"
b0 |"
b0 +
b0 ~
b0 q"
b0 z"
0%
0*
b0 )
b0 r"
b0 {"
b0 -
b0 o"
b0 x"
b0 .
b0 n"
b0 w"
b1000000 d"
b1000000 v"
1!
#10000
0!
#15000
b1000000 v"
b1000000 d"
1!
#20000
0!
1"
#25000
b1000 \"
b100 a"
b100 b"
b100 2
b100 5"
b100 `"
1!
#30000
0!
#35000
b1100 \"
b100 =
b100 e
b100 C"
b1000 2
b1000 5"
b1000 `"
b100 3
b100 6"
b100 _"
b1000 a"
b1000 b"
1!
#40000
0!
#45000
b100 M
b100 n
b100 ["
b10000 \"
b1100 a"
b1100 b"
b1100 2
b1100 5"
b1100 `"
b1000 3
b1000 6"
b1000 _"
b1000 =
b1000 e
b1000 C"
b100 >
b100 f
b100 B"
b100 S
b100 s
b100 i"
1!
#50000
0!
#55000
b1000 M
b1000 n
b1000 ["
b10100 \"
b100 ,
b100 p"
b100 y"
b1000 S
b1000 s
b1000 i"
b1100 =
b1100 e
b1100 C"
b1000 >
b1000 f
b1000 B"
b10000 2
b10000 5"
b10000 `"
b1100 3
b1100 6"
b1100 _"
b10000 a"
b10000 b"
1!
#60000
0!
#65000
b1100 M
b1100 n
b1100 ["
b11000 \"
b10100 a"
b10100 b"
b10100 2
b10100 5"
b10100 `"
b10000 3
b10000 6"
b10000 _"
b10000 =
b10000 e
b10000 C"
b1100 >
b1100 f
b1100 B"
b1100 S
b1100 s
b1100 i"
b1000 ,
b1000 p"
b1000 y"
1!
#70000
0!
#75000
b10000 M
b10000 n
b10000 ["
b11100 \"
b1100 ,
b1100 p"
b1100 y"
b10000 S
b10000 s
b10000 i"
b10100 =
b10100 e
b10100 C"
b10000 >
b10000 f
b10000 B"
b11000 2
b11000 5"
b11000 `"
b10100 3
b10100 6"
b10100 _"
b11000 a"
b11000 b"
1!
#80000
0!
#85000
b10100 M
b10100 n
b10100 ["
b100000 \"
b11100 a"
b11100 b"
b11100 2
b11100 5"
b11100 `"
b11000 3
b11000 6"
b11000 _"
b11000 =
b11000 e
b11000 C"
b10100 >
b10100 f
b10100 B"
b10100 S
b10100 s
b10100 i"
b10000 ,
b10000 p"
b10000 y"
1!
#90000
0!
#95000
b11000 M
b11000 n
b11000 ["
b100100 \"
b10100 ,
b10100 p"
b10100 y"
b11000 S
b11000 s
b11000 i"
b11100 =
b11100 e
b11100 C"
b11000 >
b11000 f
b11000 B"
b100000 2
b100000 5"
b100000 `"
b11100 3
b11100 6"
b11100 _"
b100000 a"
b100000 b"
1!
#100000
0!
#105000
b11100 M
b11100 n
b11100 ["
b101000 \"
b100100 a"
b100100 b"
b100100 2
b100100 5"
b100100 `"
b100000 3
b100000 6"
b100000 _"
b100000 =
b100000 e
b100000 C"
b11100 >
b11100 f
b11100 B"
b11100 S
b11100 s
b11100 i"
b11000 ,
b11000 p"
b11000 y"
1!
#110000
0!
#115000
b100000 M
b100000 n
b100000 ["
b101100 \"
b11100 ,
b11100 p"
b11100 y"
b100000 S
b100000 s
b100000 i"
b100100 =
b100100 e
b100100 C"
b100000 >
b100000 f
b100000 B"
b101000 2
b101000 5"
b101000 `"
b100100 3
b100100 6"
b100100 _"
b101000 a"
b101000 b"
1!
#120000
0!
#125000
b100100 M
b100100 n
b100100 ["
b110000 \"
b101100 a"
b101100 b"
b101100 2
b101100 5"
b101100 `"
b101000 3
b101000 6"
b101000 _"
b101000 =
b101000 e
b101000 C"
b100100 >
b100100 f
b100100 B"
b100100 S
b100100 s
b100100 i"
b100000 ,
b100000 p"
b100000 y"
1!
#130000
0!
#135000
b101000 M
b101000 n
b101000 ["
b110100 \"
b100100 ,
b100100 p"
b100100 y"
b101000 S
b101000 s
b101000 i"
b101100 =
b101100 e
b101100 C"
b101000 >
b101000 f
b101000 B"
b110000 2
b110000 5"
b110000 `"
b101100 3
b101100 6"
b101100 _"
b110000 a"
b110000 b"
1!
#140000
0!
#145000
b101100 M
b101100 n
b101100 ["
b111000 \"
b110100 a"
b110100 b"
b110100 2
b110100 5"
b110100 `"
b110000 3
b110000 6"
b110000 _"
b110000 =
b110000 e
b110000 C"
b101100 >
b101100 f
b101100 B"
b101100 S
b101100 s
b101100 i"
b101000 ,
b101000 p"
b101000 y"
1!
#150000
0!
#155000
b110000 M
b110000 n
b110000 ["
b111100 \"
b101100 ,
b101100 p"
b101100 y"
b110000 S
b110000 s
b110000 i"
b110100 =
b110100 e
b110100 C"
b110000 >
b110000 f
b110000 B"
b111000 2
b111000 5"
b111000 `"
b110100 3
b110100 6"
b110100 _"
b111000 a"
b111000 b"
1!
#160000
0!
#165000
b110100 M
b110100 n
b110100 ["
b1000000 \"
b111100 a"
b111100 b"
b111100 2
b111100 5"
b111100 `"
b111000 3
b111000 6"
b111000 _"
b111000 =
b111000 e
b111000 C"
b110100 >
b110100 f
b110100 B"
b110100 S
b110100 s
b110100 i"
b110000 ,
b110000 p"
b110000 y"
1!
#170000
0!
#175000
b111000 M
b111000 n
b111000 ["
b1000100 \"
b110100 ,
b110100 p"
b110100 y"
b111000 S
b111000 s
b111000 i"
b111100 =
b111100 e
b111100 C"
b111000 >
b111000 f
b111000 B"
b1000000 2
b1000000 5"
b1000000 `"
b111100 3
b111100 6"
b111100 _"
b1000000 a"
b1000000 b"
1!
#180000
0!
#185000
b111100 M
b111100 n
b111100 ["
b1001000 \"
b1000100 a"
b1000100 b"
b1000100 2
b1000100 5"
b1000100 `"
b1000000 3
b1000000 6"
b1000000 _"
b1000000 =
b1000000 e
b1000000 C"
b111100 >
b111100 f
b111100 B"
b111100 S
b111100 s
b111100 i"
b111000 ,
b111000 p"
b111000 y"
1!
#190000
0!
#195000
b1000000 M
b1000000 n
b1000000 ["
b1001100 \"
b111100 ,
b111100 p"
b111100 y"
b1000000 S
b1000000 s
b1000000 i"
b1000100 =
b1000100 e
b1000100 C"
b1000000 >
b1000000 f
b1000000 B"
b1001000 2
b1001000 5"
b1001000 `"
b1000100 3
b1000100 6"
b1000100 _"
b1001000 a"
b1001000 b"
1!
#200000
0!
#205000
b1000100 M
b1000100 n
b1000100 ["
b1010000 \"
b1001100 a"
b1001100 b"
b1001100 2
b1001100 5"
b1001100 `"
b1001000 3
b1001000 6"
b1001000 _"
b1001000 =
b1001000 e
b1001000 C"
b1000100 >
b1000100 f
b1000100 B"
b1000100 S
b1000100 s
b1000100 i"
b1000000 ,
b1000000 p"
b1000000 y"
1!
#210000
0!
#215000
b1001000 M
b1001000 n
b1001000 ["
b1010100 \"
b1000100 ,
b1000100 p"
b1000100 y"
b1001000 S
b1001000 s
b1001000 i"
b1001100 =
b1001100 e
b1001100 C"
b1001000 >
b1001000 f
b1001000 B"
b1010000 2
b1010000 5"
b1010000 `"
b1001100 3
b1001100 6"
b1001100 _"
b1010000 a"
b1010000 b"
1!
#220000
0!
#225000
b1001100 M
b1001100 n
b1001100 ["
b1011000 \"
b1010100 a"
b1010100 b"
b1010100 2
b1010100 5"
b1010100 `"
b1010000 3
b1010000 6"
b1010000 _"
b1010000 =
b1010000 e
b1010000 C"
b1001100 >
b1001100 f
b1001100 B"
b1001100 S
b1001100 s
b1001100 i"
b1001000 ,
b1001000 p"
b1001000 y"
1!
#230000
0!
#235000
b1010000 M
b1010000 n
b1010000 ["
b1011100 \"
b1001100 ,
b1001100 p"
b1001100 y"
b1010000 S
b1010000 s
b1010000 i"
b1010100 =
b1010100 e
b1010100 C"
b1010000 >
b1010000 f
b1010000 B"
b1011000 2
b1011000 5"
b1011000 `"
b1010100 3
b1010100 6"
b1010100 _"
b1011000 a"
b1011000 b"
1!
#240000
0!
#245000
b1010100 M
b1010100 n
b1010100 ["
b1100000 \"
b1011100 a"
b1011100 b"
b1011100 2
b1011100 5"
b1011100 `"
b1011000 3
b1011000 6"
b1011000 _"
b1011000 =
b1011000 e
b1011000 C"
b1010100 >
b1010100 f
b1010100 B"
b1010100 S
b1010100 s
b1010100 i"
b1010000 ,
b1010000 p"
b1010000 y"
1!
#250000
0!
#255000
b1011000 M
b1011000 n
b1011000 ["
b1100100 \"
b1010100 ,
b1010100 p"
b1010100 y"
b1011000 S
b1011000 s
b1011000 i"
b1011100 =
b1011100 e
b1011100 C"
b1011000 >
b1011000 f
b1011000 B"
b1100000 2
b1100000 5"
b1100000 `"
b1011100 3
b1011100 6"
b1011100 _"
b1100000 a"
b1100000 b"
1!
#260000
0!
#265000
b1011100 M
b1011100 n
b1011100 ["
b1101000 \"
b1100100 a"
b1100100 b"
b1100100 2
b1100100 5"
b1100100 `"
b1100000 3
b1100000 6"
b1100000 _"
b1100000 =
b1100000 e
b1100000 C"
b1011100 >
b1011100 f
b1011100 B"
b1011100 S
b1011100 s
b1011100 i"
b1011000 ,
b1011000 p"
b1011000 y"
1!
#270000
0!
#275000
b1100000 M
b1100000 n
b1100000 ["
b1101100 \"
b1011100 ,
b1011100 p"
b1011100 y"
b1100000 S
b1100000 s
b1100000 i"
b1100100 =
b1100100 e
b1100100 C"
b1100000 >
b1100000 f
b1100000 B"
b1101000 2
b1101000 5"
b1101000 `"
b1100100 3
b1100100 6"
b1100100 _"
b1101000 a"
b1101000 b"
1!
#280000
0!
#285000
b1100100 M
b1100100 n
b1100100 ["
b1110000 \"
b1101100 a"
b1101100 b"
b1101100 2
b1101100 5"
b1101100 `"
b1101000 3
b1101000 6"
b1101000 _"
b1101000 =
b1101000 e
b1101000 C"
b1100100 >
b1100100 f
b1100100 B"
b1100100 S
b1100100 s
b1100100 i"
b1100000 ,
b1100000 p"
b1100000 y"
1!
#290000
0!
#295000
b1101000 M
b1101000 n
b1101000 ["
b1110100 \"
b1100100 ,
b1100100 p"
b1100100 y"
b1101000 S
b1101000 s
b1101000 i"
b1101100 =
b1101100 e
b1101100 C"
b1101000 >
b1101000 f
b1101000 B"
b1110000 2
b1110000 5"
b1110000 `"
b1101100 3
b1101100 6"
b1101100 _"
b1110000 a"
b1110000 b"
1!
#300000
0!
#305000
b1101100 M
b1101100 n
b1101100 ["
b1111000 \"
b1110100 a"
b1110100 b"
b1110100 2
b1110100 5"
b1110100 `"
b1110000 3
b1110000 6"
b1110000 _"
b1110000 =
b1110000 e
b1110000 C"
b1101100 >
b1101100 f
b1101100 B"
b1101100 S
b1101100 s
b1101100 i"
b1101000 ,
b1101000 p"
b1101000 y"
1!
#310000
0!
#315000
b1110000 M
b1110000 n
b1110000 ["
b1111100 \"
b1101100 ,
b1101100 p"
b1101100 y"
b1110000 S
b1110000 s
b1110000 i"
b1110100 =
b1110100 e
b1110100 C"
b1110000 >
b1110000 f
b1110000 B"
b1111000 2
b1111000 5"
b1111000 `"
b1110100 3
b1110100 6"
b1110100 _"
b1111000 a"
b1111000 b"
1!
#320000
0!
#325000
b1110100 M
b1110100 n
b1110100 ["
b10000000 \"
b1111100 a"
b1111100 b"
b1111100 2
b1111100 5"
b1111100 `"
b1111000 3
b1111000 6"
b1111000 _"
b1111000 =
b1111000 e
b1111000 C"
b1110100 >
b1110100 f
b1110100 B"
b1110100 S
b1110100 s
b1110100 i"
b1110000 ,
b1110000 p"
b1110000 y"
1!
#330000
0!
#335000
b1111000 M
b1111000 n
b1111000 ["
b10000100 \"
b1110100 ,
b1110100 p"
b1110100 y"
b1111000 S
b1111000 s
b1111000 i"
b1111100 =
b1111100 e
b1111100 C"
b1111000 >
b1111000 f
b1111000 B"
b10000000 2
b10000000 5"
b10000000 `"
b1111100 3
b1111100 6"
b1111100 _"
b10000000 a"
b10000000 b"
1!
#340000
0!
#345000
b1111100 M
b1111100 n
b1111100 ["
b10001000 \"
b10000100 a"
b10000100 b"
b10000100 2
b10000100 5"
b10000100 `"
b10000000 3
b10000000 6"
b10000000 _"
b10000000 =
b10000000 e
b10000000 C"
b1111100 >
b1111100 f
b1111100 B"
b1111100 S
b1111100 s
b1111100 i"
b1111000 ,
b1111000 p"
b1111000 y"
1!
#350000
0!
#355000
b10000000 M
b10000000 n
b10000000 ["
b10001100 \"
b1111100 ,
b1111100 p"
b1111100 y"
b10000000 S
b10000000 s
b10000000 i"
b10000100 =
b10000100 e
b10000100 C"
b10000000 >
b10000000 f
b10000000 B"
b10001000 2
b10001000 5"
b10001000 `"
b10000100 3
b10000100 6"
b10000100 _"
b10001000 a"
b10001000 b"
1!
#360000
0!
#365000
b10000100 M
b10000100 n
b10000100 ["
b10010000 \"
b10001100 a"
b10001100 b"
b10001100 2
b10001100 5"
b10001100 `"
b10001000 3
b10001000 6"
b10001000 _"
b10001000 =
b10001000 e
b10001000 C"
b10000100 >
b10000100 f
b10000100 B"
b10000100 S
b10000100 s
b10000100 i"
b10000000 ,
b10000000 p"
b10000000 y"
1!
#370000
0!
#375000
b10001000 M
b10001000 n
b10001000 ["
b10010100 \"
b10000100 ,
b10000100 p"
b10000100 y"
b10001000 S
b10001000 s
b10001000 i"
b10001100 =
b10001100 e
b10001100 C"
b10001000 >
b10001000 f
b10001000 B"
b10010000 2
b10010000 5"
b10010000 `"
b10001100 3
b10001100 6"
b10001100 _"
b10010000 a"
b10010000 b"
1!
#380000
0!
#385000
b10001100 M
b10001100 n
b10001100 ["
b10011000 \"
b10010100 a"
b10010100 b"
b10010100 2
b10010100 5"
b10010100 `"
b10010000 3
b10010000 6"
b10010000 _"
b10010000 =
b10010000 e
b10010000 C"
b10001100 >
b10001100 f
b10001100 B"
b10001100 S
b10001100 s
b10001100 i"
b10001000 ,
b10001000 p"
b10001000 y"
1!
#390000
0!
#395000
b10010000 M
b10010000 n
b10010000 ["
b10011100 \"
b10001100 ,
b10001100 p"
b10001100 y"
b10010000 S
b10010000 s
b10010000 i"
b10010100 =
b10010100 e
b10010100 C"
b10010000 >
b10010000 f
b10010000 B"
b10011000 2
b10011000 5"
b10011000 `"
b10010100 3
b10010100 6"
b10010100 _"
b10011000 a"
b10011000 b"
1!
#400000
0!
#405000
b10010100 M
b10010100 n
b10010100 ["
b10100000 \"
b10011100 a"
b10011100 b"
b10011100 2
b10011100 5"
b10011100 `"
b10011000 3
b10011000 6"
b10011000 _"
b10011000 =
b10011000 e
b10011000 C"
b10010100 >
b10010100 f
b10010100 B"
b10010100 S
b10010100 s
b10010100 i"
b10010000 ,
b10010000 p"
b10010000 y"
1!
#410000
0!
#415000
b10011000 M
b10011000 n
b10011000 ["
b10100100 \"
b10010100 ,
b10010100 p"
b10010100 y"
b10011000 S
b10011000 s
b10011000 i"
b10011100 =
b10011100 e
b10011100 C"
b10011000 >
b10011000 f
b10011000 B"
b10100000 2
b10100000 5"
b10100000 `"
b10011100 3
b10011100 6"
b10011100 _"
b10100000 a"
b10100000 b"
1!
#420000
0!
#425000
b10011100 M
b10011100 n
b10011100 ["
b10101000 \"
b10100100 a"
b10100100 b"
b10100100 2
b10100100 5"
b10100100 `"
b10100000 3
b10100000 6"
b10100000 _"
b10100000 =
b10100000 e
b10100000 C"
b10011100 >
b10011100 f
b10011100 B"
b10011100 S
b10011100 s
b10011100 i"
b10011000 ,
b10011000 p"
b10011000 y"
1!
#430000
0!
